<?xml version="1.0" encoding="UTF-8"?>
<svg width="60px" height="60px" viewBox="0 0 60 60" version="1.1" xmlns="http://www.w3.org/2000/svg" xmlns:xlink="http://www.w3.org/1999/xlink">
    <!-- Generator: Sketch 48.2 (47327) - http://www.bohemiancoding.com/sketch -->
    <title>btnn-qrcode</title>
    <desc>Created with Sketch.</desc>
    <defs></defs>
    <g id="Symbols" stroke="none" stroke-width="1" fill="none" fill-rule="evenodd">
        <g id="btnn-qrcode">
            <rect id="Rectangle-Copy" fill="#FFFFFF" x="13" y="13" width="34" height="34"></rect>
            <path d="M32.6105263,42.0421053 L32.5578947,42.0925208 L29.4526316,42.0925208 L29.4526316,43 L33.5578947,43 L33.5578947,41.0842105 L32.6105263,41.0842105 L32.6105263,42.0421053 Z M39.9092559,39.9894737 L37.9368421,39.9894737 L37.9368421,40.923775 C38.2730348,40.9197782 38.7223819,40.889673 38.9749546,40.9756806 L38.9749546,41.9618875 C39.3111474,41.9578907 39.7604944,41.9277855 40.0130672,42.0137931 L40.0130672,43 L40.9473684,43 L40.9473684,41.0275862 C40.6111757,41.0315829 40.1618287,41.0616882 39.9092559,40.9756806 L39.9092559,39.9894737 Z M32.6,39.8526316 L33.5578947,39.8526316 L33.5578947,38.8947368 L32.6,38.8947368 L32.6,39.8526316 Z M30.4105263,40.9334049 L30.4105263,40.0034372 C29.7868796,40.007777 28.8662632,40.1267096 28.3439313,39.9517723 L28.3439313,37.9368421 L27.4139635,37.9368421 L27.4139635,39.9517723 L27.3622986,40.0034372 L26.380666,40.0034372 L26.380666,40.9334049 L27.3622986,40.9334049 L27.4139635,40.9850698 C27.4179933,41.3339111 27.4522988,41.8053531 27.3622986,42.0700322 L25.3473684,42.0700322 L25.3473684,43 L28.3439313,43 C28.3399531,42.6653666 28.3099874,42.2181038 28.3955961,41.9667025 L29.3772288,41.9667025 C29.3732506,41.6320691 29.343285,41.1848062 29.4288937,40.9334049 L30.4105263,40.9334049 Z M19.0526316,40.9473684 L22.0631579,40.9473684 L22.0631579,37.9368421 L19.0526316,37.9368421 L19.0526316,40.9473684 Z M41.9618875,36.9154844 C41.6256947,36.9194548 41.1763477,36.9493617 40.923775,36.8639207 L40.923775,35.8842105 L39.9894737,35.8842105 L39.9894737,37.8436308 C40.3256664,37.8396604 40.7750134,37.8097535 41.0275862,37.8951945 L41.0275862,39.9061785 C41.3637789,39.9022081 41.813126,39.8723011 42.0656987,39.9577422 L42.0656987,43 L43,43 L43,37.9467582 C42.6638073,37.9507286 42.2144603,37.9806355 41.9618875,37.8951945 L41.9618875,36.9154844 Z M35.8842105,36.8421053 L36.8421053,36.8421053 L36.8421053,35.8842105 L35.8842105,35.8842105 L35.8842105,36.8421053 Z M28.4947368,36.8421053 L29.4526316,36.8421053 L29.4526316,35.8842105 L28.4947368,35.8842105 L28.4947368,36.8421053 Z M26.4421053,36.8421053 L27.4,36.8421053 L27.4,35.8842105 L26.4421053,35.8842105 L26.4421053,36.8421053 Z M23.3491578,36.7052632 L23.4022462,36.7573032 L23.4022462,40.296029 C23.4022462,40.8255889 23.4956287,41.5789731 23.3491578,42.0133517 L19.7391453,42.0133517 C19.1989176,42.0133517 18.4303565,42.1048902 17.9872275,41.9613116 L17.9872275,38.4225859 C17.9872275,37.893026 17.893845,37.1396417 18.0403159,36.7052632 L23.3491578,36.7052632 Z M17,43 L24.1157895,43 L24.1157895,35.8842105 L17,35.8842105 L17,43 Z M29.4526316,35.6105263 L30.4105263,35.6105263 L30.4105263,34.6526316 L29.4526316,34.6526316 L29.4526316,35.6105263 Z M27.4,35.6105263 L28.3578947,35.6105263 L28.3578947,34.6526316 L27.4,34.6526316 L27.4,35.6105263 Z M25.3473684,35.6105263 L26.3052632,35.6105263 L26.3052632,34.6526316 L25.3473684,34.6526316 L25.3473684,35.6105263 Z M42.0925208,34.6243194 L42.0421053,34.676225 L41.0842105,34.676225 L41.0842105,35.6105263 L43,35.6105263 L43,32.6 L42.0925208,32.6 L42.0925208,34.6243194 Z M20.1473684,33.5578947 L21.1052632,33.5578947 L21.1052632,32.6 L20.1473684,32.6 L20.1473684,33.5578947 Z M26.4421053,32.6 L27.4,32.6 L27.4,31.6421053 L26.4421053,31.6421053 L26.4421053,32.6 Z M22.2947368,32.5764065 L24.3473684,32.5764065 L24.4,32.6283122 C24.4041053,32.9787789 24.4390526,33.4524178 24.3473684,33.7183303 L21.2421053,33.7183303 L21.2421053,34.6526316 L25.3473684,34.6526316 L25.3473684,31.6421053 L22.2947368,31.6421053 L22.2947368,32.5764065 Z M17.9578947,34.6526316 L18.9157895,34.6526316 L18.9157895,31.6421053 L17.9578947,31.6421053 L17.9578947,34.6526316 Z M39.9894737,31.5052632 L40.9473684,31.5052632 L40.9473684,30.5473684 L39.9894737,30.5473684 L39.9894737,31.5052632 Z M27.4,31.5052632 L28.3578947,31.5052632 L28.3578947,30.5473684 L27.4,30.5473684 L27.4,31.5052632 Z M19.0526316,31.5052632 L20.0105263,31.5052632 L20.0105263,30.5473684 L19.0526316,30.5473684 L19.0526316,31.5052632 Z M37.8802178,29.4526316 L37.8802178,30.4526316 L37.8283122,30.5052632 L36.8421053,30.5052632 L36.8421053,31.4526316 C37.178298,31.4485789 37.627645,31.4180526 37.8802178,31.5052632 L37.8802178,32.5052632 C38.2164105,32.5012105 38.6657575,32.4706842 38.9183303,32.5578947 L38.9183303,33.5578947 L39.8526316,33.5578947 L39.8526316,31.5578947 C39.5164388,31.5619474 39.0670918,31.5924737 38.8145191,31.5052632 L38.8145191,29.4526316 L37.8802178,29.4526316 Z M34.7761067,34.6526316 L37.9502091,34.6526316 L38.0031108,34.7044869 C38.0073429,35.5615007 38.1900654,37.1605647 37.9502091,37.8676645 C37.0759026,37.871813 35.4445727,38.0509214 34.723205,37.8158092 C34.7189729,36.9587955 34.5362504,35.3597314 34.7761067,34.6526316 Z M36.7133127,39.9544676 C36.3744232,39.9585108 35.9214718,39.9889661 35.6668731,39.9019584 C35.6628443,39.5474164 35.6280502,39.0682701 35.719195,38.7992656 C36.0724731,38.7952224 36.5499111,38.7603038 36.8179567,38.8517748 L36.8179567,39.8494492 L37.7597523,39.8494492 C37.7557235,39.5093472 37.7253768,39.0547753 37.8120743,38.7992656 L39.8526316,38.7992656 L39.8526316,37.8541004 C39.5137421,37.8581436 39.0607907,37.8885989 38.806192,37.8015912 L38.806192,33.653366 C38.1746133,33.6577767 37.2422879,33.7786529 36.7133127,33.6008568 L36.7133127,32.6031824 C36.3744232,32.6072256 35.9214718,32.6376809 35.6668731,32.5506732 L35.6668731,31.5529988 L34.7250774,31.5529988 L34.7250774,32.5506732 L34.6727554,32.6031824 L33.6786378,32.6031824 L33.6786378,33.6008568 L33.6263158,33.653366 C33.2730378,33.6574092 32.7955997,33.6923278 32.5275542,33.6008568 L32.5275542,32.6031824 C32.1886647,32.6072256 31.7357133,32.6376809 31.4811146,32.5506732 C31.4770858,32.1961312 31.4422916,31.7169849 31.5334365,31.4479804 L33.5739938,31.4479804 L33.5739938,30.5028152 C33.2351043,30.5068584 32.7821529,30.5373137 32.5275542,30.450306 L32.5275542,29.4526316 L31.5857585,29.4526316 L31.5857585,30.450306 L31.5334365,30.5028152 L30.5393189,30.5028152 L30.5393189,31.5004896 L30.4869969,31.5529988 L28.4464396,31.5529988 L28.4464396,32.5506732 L28.3941176,32.6031824 L27.4,32.6031824 L27.4,33.5483476 C27.7388895,33.5443044 28.1918409,33.5138491 28.4464396,33.6008568 L28.4464396,34.5985312 L29.3882353,34.5985312 C29.3838926,33.9646929 29.263395,33.0290318 29.4405573,32.498164 C29.7938353,32.4941208 30.2712734,32.4592022 30.5393189,32.5506732 L30.5393189,33.5483476 L31.5334365,33.5483476 L31.5857585,33.6008568 C31.5901536,34.2495552 31.7152031,35.2089504 31.5334365,35.7537332 L30.5393189,35.7537332 L30.5393189,36.7514076 L30.4869969,36.8039168 L29.4928793,36.8039168 L29.4928793,38.7992656 C29.8317687,38.7952224 30.2847201,38.7647671 30.5393189,38.8517748 L30.5393189,39.8494492 L31.4811146,39.8494492 C31.4769288,38.9946523 31.2998712,37.4035716 31.5334365,36.6988984 C31.8867146,36.6948552 32.3641526,36.6599366 32.6321981,36.7514076 L32.6321981,37.749082 C32.9710876,37.7450388 33.424039,37.7145835 33.6786378,37.8015912 L33.6786378,38.7992656 L34.6727554,38.7992656 L34.7250774,38.8517748 C34.7291062,39.2063168 34.7639003,39.685463 34.6727554,39.9544676 L33.6786378,39.9544676 L33.6786378,40.8996328 L35.719195,40.8996328 L35.771517,40.952142 C35.7755458,41.306684 35.8103399,41.7858302 35.719195,42.0548348 L34.7250774,42.0548348 L34.7250774,43 L38.806192,43 L38.806192,42.0548348 C38.1746133,42.0592455 37.2422879,42.1801217 36.7133127,42.0023256 L36.7133127,39.9544676 Z M23.2947368,30.4105263 L24.2526316,30.4105263 L24.2526316,29.4526316 L23.2947368,29.4526316 L23.2947368,30.4105263 Z M17,30.4105263 L17.9578947,30.4105263 L17.9578947,29.4526316 L17,29.4526316 L17,30.4105263 Z M42.0421053,30.4105263 L43,30.4105263 L43,28.4947368 L42.0421053,28.4947368 L42.0421053,30.4105263 Z M39.9894737,29.4526316 L40.9473684,29.4526316 L40.9473684,28.4947368 L39.9894737,28.4947368 L39.9894737,29.4526316 Z M35.6105263,29.5030471 L34.6526316,29.5030471 L34.6526316,30.4105263 L36.5684211,30.4105263 L36.5684211,28.4947368 L35.6609418,28.4947368 L35.6609418,29.4526316 L35.6105263,29.5030471 Z M32.6,29.4526316 L33.5578947,29.4526316 L33.5578947,28.4947368 L32.6,28.4947368 L32.6,29.4526316 Z M38.8947368,28.3578947 L39.8526316,28.3578947 L39.8526316,27.4 L38.8947368,27.4 L38.8947368,28.3578947 Z M33.6947368,28.3578947 L34.6526316,28.3578947 L34.6526316,27.4 L33.6947368,27.4 L33.6947368,28.3578947 Z M31.5052632,29.3724138 L31.5052632,28.4381125 C31.1690704,28.4421093 30.7197234,28.4722145 30.4671506,28.3862069 L30.4671506,27.4 L29.5328494,27.4 L29.5328494,29.4243194 L29.4809437,29.476225 L28.4947368,29.476225 L28.4947368,30.4105263 L30.4671506,30.4105263 C30.4631539,30.0743336 30.4330486,29.6249866 30.5190563,29.3724138 L31.5052632,29.3724138 Z M41.9473684,25.3473684 L38.8947368,25.3473684 L38.8947368,26.2816697 C39.2356316,26.277673 39.6912632,26.2475677 39.9473684,26.3335753 L39.9473684,27.3197822 C40.2882632,27.3157855 40.7438947,27.2856802 41,27.3716878 L41,28.3578947 L41.9473684,28.3578947 C41.9433158,28.021702 41.9127895,27.572355 42,27.3197822 L43,27.3197822 L43,26.3854809 C42.6591053,26.3894777 42.2034737,26.4195829 41.9473684,26.3335753 L41.9473684,25.3473684 Z M36.7052632,25.3473684 L31.6421053,25.3473684 L31.6421053,26.2548476 C32.4831578,26.2508144 34.0486552,26.0802587 34.7419979,26.3052632 L34.7419979,27.2631579 L35.6719656,27.2631579 C35.6679874,26.9366166 35.6380218,26.5001695 35.7236305,26.2548476 L36.7052632,26.2548476 L36.7052632,25.3473684 Z M29.4526316,26.3052632 L30.4105263,26.3052632 L30.4105263,25.3473684 L29.4526316,25.3473684 L29.4526316,26.3052632 Z M23.2947368,26.3052632 L24.2526316,26.3052632 L24.2526316,25.3473684 L23.2947368,25.3473684 L23.2947368,26.3052632 Z M30.5473684,25.2105263 L31.5052632,25.2105263 L31.5052632,24.2526316 L30.5473684,24.2526316 L30.5473684,25.2105263 Z M31.6421053,24.2526316 L32.6,24.2526316 L32.6,23.2947368 L31.6421053,23.2947368 L31.6421053,24.2526316 Z M29.4526316,24.2526316 L30.4105263,24.2526316 L30.4105263,23.2947368 L29.4526316,23.2947368 L29.4526316,24.2526316 Z M19.0840174,27.4684211 L19.0840174,28.4722185 C19.4214719,28.4681505 19.8725054,28.4375083 20.1260261,28.52505 L20.1260261,30.5854763 L21.0638339,30.5854763 C21.0595096,29.947748 20.9395223,29.0063444 21.1159343,28.4722185 C21.4677165,28.4680977 21.9431329,28.4330176 22.2100435,28.52505 L22.2100435,29.5288474 L23.1478513,29.5288474 C23.1438395,29.1866582 23.1136213,28.7292963 23.1999517,28.4722185 C23.8436005,28.4677807 24.7955275,28.3415664 25.3360695,28.52505 L25.3360695,31.6421053 L26.2738774,31.6421053 C26.269553,31.0043769 26.1495657,30.0629734 26.3259778,29.5288474 L27.315886,29.5288474 L27.315886,28.5778814 C26.9784315,28.5819494 26.5273981,28.6125917 26.2738774,28.52505 C26.2698135,28.168332 26.2352188,27.6862451 26.3259778,27.4155896 C26.6777599,27.4114688 27.1531764,27.3763887 27.4200869,27.4684211 L27.4200869,28.4722185 L28.3578947,28.4722185 L28.3578947,26.4646236 C27.7289904,26.4690086 26.8006127,26.5906794 26.2738774,26.4117921 L26.2738774,23.2947368 L25.3360695,23.2947368 L25.3360695,26.4117921 L25.2839691,26.4646236 L24.2940608,26.4646236 L24.2940608,27.4684211 L24.2419604,27.5212525 C23.5983116,27.5256903 22.6463846,27.6519047 22.1058426,27.4684211 L22.1058426,26.4646236 L19.2403187,26.4646236 C18.8275269,26.4646236 18.2626019,26.5208891 17.9378078,26.4117921 L17.9378078,25.4079947 L17,25.4079947 L17,28.4722185 L17.9378078,28.4722185 C17.9337961,28.1300292 17.9035778,27.6726674 17.9899083,27.4155896 C18.3416904,27.4114688 18.8171069,27.3763887 19.0840174,27.4684211 Z M37.9368421,22.0631579 L40.9473684,22.0631579 L40.9473684,19.0526316 L37.9368421,19.0526316 L37.9368421,22.0631579 Z M19.0526316,22.0631579 L22.0631579,22.0631579 L22.0631579,19.0526316 L19.0526316,19.0526316 L19.0526316,22.0631579 Z M38.4865137,23.4022462 C37.946286,23.4022462 37.177725,23.4956287 36.7345959,23.3491578 L36.7345959,19.7391453 C36.7345959,19.1989176 36.6412134,18.4303565 36.7876843,17.9872275 L40.3976968,17.9872275 C40.9379245,17.9872275 41.7064856,17.893845 42.1496146,18.0403159 L42.1496146,21.6503284 C42.1496146,22.1905561 42.2429971,22.9591172 42.0965262,23.4022462 L38.4865137,23.4022462 Z M35.8842105,24.1157895 L43,24.1157895 L43,17 L35.8842105,17 L35.8842105,24.1157895 Z M32.6,18.9157895 L33.5578947,18.9157895 L33.5578947,17 L32.6,17 L32.6,18.9157895 Z M26.3929036,23.2341106 C26.7315002,23.2300426 27.1840601,23.1994003 27.4384388,23.286942 L27.4384388,25.3473684 L28.3794205,25.3473684 C28.3750815,24.70964 28.2546881,23.7682365 28.4316972,23.2341106 L29.4249556,23.2341106 C29.4209303,22.8919213 29.3906098,22.4345595 29.4772324,22.1774817 L31.516026,22.1774817 L31.516026,21.2265157 C30.8849933,21.2309007 29.9534737,21.3525715 29.4249556,21.1736842 L29.4249556,20.1698867 L28.483974,20.1698867 L28.483974,21.1736842 L28.4316972,21.2265157 C28.0787245,21.2306365 27.6016991,21.2657166 27.3338853,21.1736842 C27.329494,20.5210045 27.2046048,19.5557212 27.386162,19.0075949 C28.0319891,19.0031571 28.9871378,18.8769428 29.5295092,19.0604264 L29.5295092,20.0642239 C30.1605419,20.0598388 31.0920615,19.938168 31.6205795,20.1170553 L31.6205795,21.1208528 C31.9591761,21.1167847 32.411736,21.0861425 32.6661147,21.1736842 L32.6661147,23.2341106 C33.0047113,23.2300426 33.4572712,23.1994003 33.7116499,23.286942 L33.7116499,24.2907395 L34.6526316,24.2907395 L34.6526316,22.2831446 C34.314035,22.2872126 33.8614751,22.3178548 33.6070964,22.2303131 C33.6030711,21.8735952 33.568307,21.3915083 33.6593732,21.1208528 L34.6526316,21.1208528 L34.6526316,19.1132578 L33.7116499,19.1132578 L33.7116499,20.1170553 L33.6593732,20.1698867 C33.3064005,20.1740076 32.829375,20.2090877 32.5615612,20.1170553 L32.5615612,19.1132578 C31.9305284,19.1176428 30.9990089,19.2393137 30.4704908,19.0604264 C30.4664655,18.7037085 30.4317015,18.2216215 30.5227676,17.950966 L31.516026,17.950966 L31.516026,17 L26.3929036,17 L26.3929036,18.0037975 L26.3406268,18.0566289 L25.3473684,18.0566289 L25.3473684,21.1208528 C25.685965,21.1167847 26.1385249,21.0861425 26.3929036,21.1736842 L26.3929036,23.2341106 Z M19.7391453,23.2659833 C19.1989176,23.2659833 18.4303565,23.3575218 17.9872275,23.2139432 L17.9872275,19.6752175 C17.9872275,19.1456576 17.893845,18.3922733 18.0403159,17.9578947 L23.3491578,17.9578947 L23.4022462,18.0099348 L23.4022462,21.5486605 C23.4022462,22.0782204 23.4956287,22.8316047 23.3491578,23.2659833 L19.7391453,23.2659833 Z M17,24.1157895 L24.1157895,24.1157895 L24.1157895,17 L17,17 L17,24.1157895 Z" id="Page-1-Copy" fill="#071E3C"></path>
        </g>
    </g>
</svg>